[
  {
    "name": "nginx_container",
    "image": "nginx:latest",
    "cpu": 10,
    "memory": 512,
    "essential": true,
    "portMappings": [
      {
        "containerPort": 0,
        "hostPort": 80,
	"protocol": "tcp"
      }
    ]
  }
]
